B157 lipopeptides - Fungal sensibility
…
The following object is masked from 'package:cowplot':

    align_plots

The following object is masked from 'package:MASS':

    area

Carregar dados

df1 = gsheet2tbl("https://docs.google.com/spreadsheets/d/1XGLpSlJZayIVSVxWTsyDJXpO4c65JOeMOyMAW18EVqY/edit?usp=sharing")
df1

# A tibble: 384 × 7
   trial specie   trat   conc   rep  long trans
   <dbl> <chr>    <chr> <dbl> <dbl> <dbl> <dbl>
 1     1 linariae EB     1000     1   0     0  
 2     1 linariae EB     1000     2   0     0  
 3     1 linariae EB     1000     3   0     0  
 4     1 linariae EB     1000     4   0     0  
 5     1 linariae EB      100     1   9.5   8.6
 6     1 linariae EB      100     2   8.8   8.6
 7     1 linariae EB      100     3   9.5   8.9
 8     1 linariae EB      100     4   9.5   9.6
 9     1 linariae EB       10     1  20.6  20.3
10     1 linariae EB       10     2  17.8  15.8
# … with 374 more rows
# ℹ Use `print(n = ...)` to see more rows

df2 = df1 %>% 
  mutate(trans = as.numeric(trans))%>%
mutate(m_col = (long+trans)/2)%>%
  filter(specie == "linariae", trat == "EB")
df2

# A tibble: 48 × 8
   trial specie   trat   conc   rep  long trans m_col
   <dbl> <chr>    <chr> <dbl> <dbl> <dbl> <dbl> <dbl>
 1     1 linariae EB     1000     1   0     0    0   
 2     1 linariae EB     1000     2   0     0    0   
 3     1 linariae EB     1000     3   0     0    0   
 4     1 linariae EB     1000     4   0     0    0   
 5     1 linariae EB      100     1   9.5   8.6  9.05
 6     1 linariae EB      100     2   8.8   8.6  8.7 
 7     1 linariae EB      100     3   9.5   8.9  9.2 
 8     1 linariae EB      100     4   9.5   9.6  9.55
 9     1 linariae EB       10     1  20.6  20.3 20.5 
10     1 linariae EB       10     2  17.8  15.8 16.8 
# … with 38 more rows
# ℹ Use `print(n = ...)` to see more rows
…
Análise para os dois isolados

df3 = df1 %>% 
  mutate(trans = as.numeric(trans))%>%
  mutate(m_col1 = (long+trans)/2) %>% 
  filter(trial == "1", 
         trat == "EB")
   df3

# A tibble: 48 × 8
   trial specie   trat   conc   rep  long trans m_col1
   <dbl> <chr>    <chr> <dbl> <dbl> <dbl> <dbl>  <dbl>
 1     1 linariae EB     1000     1   0     0     0   
 2     1 linariae EB     1000     2   0     0     0   
 3     1 linariae EB     1000     3   0     0     0   
 4     1 linariae EB     1000     4   0     0     0   
 5     1 linariae EB      100     1   9.5   8.6   9.05
 6     1 linariae EB      100     2   8.8   8.6   8.7 
 7     1 linariae EB      100     3   9.5   8.9   9.2 
 8     1 linariae EB      100     4   9.5   9.6   9.55
 9     1 linariae EB       10     1  20.6  20.3  20.5 
10     1 linariae EB       10     2  17.8  15.8  16.8 
# … with 38 more rows
# ℹ Use `print(n = ...)` to see more rows
…
